<svg width="140" height="140" viewBox="0 0 140 140" fill="none" xmlns="http://www.w3.org/2000/svg">
<mask id="mask0" mask-type="alpha" maskUnits="userSpaceOnUse" x="0" y="0" width="140" height="140">
<rect width="140" height="140" fill="#C4C4C4"/>
</mask>
<g mask="url(#mask0)">
<path d="M9.35055 72.4436L22.9403 79.5181V91.2949C22.9403 92.2853 23.4652 93.1882 24.2908 93.6182C24.2908 93.6182 39 101.5 50.2891 107.152C52.1784 108.098 55 108 56.7291 107.152C66.9782 102.127 82.6554 93.6553 82.6554 93.6553C83.158 93.3933 83.5598 92.9498 83.7912 92.4012C83.8239 92.3239 83.855 92.2457 83.8861 92.1673C84.0126 91.8471 84.0779 91.5024 84.0779 91.1544V79.5179L87.7848 77.5882V93.5579C86.9827 94.1358 86.3644 95.0016 86.0649 96.056L83.9558 103.483C83.696 104.399 83.703 105.365 83.9766 106.277L85.9324 112.791C86.4902 114.649 88.079 115.938 89.8856 115.998C89.8976 115.998 89.9095 115.999 89.9215 115.999L89.981 116C89.9934 116 90.0059 116 90.0185 116C91.7945 116 93.3629 114.846 94.014 113.06L96.2755 106.856C96.6244 105.899 96.6685 104.829 96.3996 103.843L94.291 96.1063C93.9972 95.0276 93.3736 94.1419 92.5571 93.5548V75.1042L97.7054 72.424C98.5311 71.9941 99.056 71.0913 99.056 70.1007V68.047C99.056 67.0566 98.5311 66.1536 97.7054 65.7237L54.5444 43.2554C53.8898 42.9149 53.1276 42.9149 52.4732 43.2554L9.35055 65.7041C8.52495 66.1338 8 67.0368 8 68.0274V70.1205C8 71.1109 8.52495 72.0137 9.35055 72.4436ZM79.3055 89.6748L55.1486 102.25H51.8693L27.7126 89.6748V82.0027L52.4734 94.8927C52.8006 95.0631 53.1547 95.1481 53.509 95.1481C53.8633 95.1481 54.2172 95.0631 54.5446 94.8927L79.3056 82.0029L79.3055 89.6748ZM53.5088 48.4409L93.1439 69.0739L80.9721 75.4103C80.8648 75.447 80.7591 75.4902 80.656 75.5436L53.5088 89.6761L26.3618 75.5436C26.2589 75.4902 26.1532 75.447 26.0461 75.4103L13.8741 69.0737L53.5088 48.4409Z" fill="#4FC2A7"/>
<path d="M25.6406 77.8776V90.8553L46.6558 103.428L55.6624 104.644L81.9314 90.4498L81.1809 79.4998L97.3176 68.9553L53.4107 45.4331L9.50391 68.9553L25.6406 77.8776Z" fill="#4FC2A7" stroke="#4FC2A7"/>
<path d="M10.7994 61.3003L28.9059 70.0223V84.5416C28.9059 85.7627 29.6054 86.8759 30.7054 87.406C30.7054 87.406 53 98.0484 65.3445 104.092C67.8725 105.329 72 105 73.9251 104.092C87.4672 97.7026 108.468 87.4517 108.468 87.4517C109.138 87.1287 109.673 86.5819 109.982 85.9056C110.025 85.8103 110.067 85.7139 110.108 85.6172C110.277 85.2225 110.364 84.7975 110.364 84.3684V70.022L115.303 67.643V87.3317C114.234 88.0441 113.41 89.1115 113.011 90.4115L110.201 99.5681C109.855 100.697 109.864 101.889 110.229 103.012L112.835 111.044C113.578 113.335 115.695 114.923 118.102 114.997C118.118 114.998 118.133 114.998 118.149 114.998L118.229 115C118.245 115 118.262 115 118.279 115C120.645 115 122.735 113.577 123.602 111.375L126.615 103.727C127.08 102.547 127.139 101.228 126.781 100.012L123.971 90.4735C123.58 89.1436 122.749 88.0517 121.661 87.3279V64.5805L128.521 61.2761C129.621 60.7461 130.32 59.6331 130.32 58.4118V55.8799C130.32 54.6588 129.621 53.5456 128.521 53.0155L71.0142 25.3149C70.1421 24.895 69.1265 24.895 68.2547 25.3149L10.7994 52.9914C9.69943 53.5212 9 54.6344 9 55.8557V58.4362C9 59.6573 9.69943 60.7703 10.7994 61.3003ZM118.336 107.397L116.339 101.241L118.469 94.2993L120.62 101.6L118.336 107.397ZM104.005 82.5443L71.8192 98.0484H67.4499L35.2644 82.5443V73.0855L68.2549 88.9773C68.6909 89.1873 69.1627 89.2921 69.6347 89.2921C70.1068 89.2921 70.5783 89.1873 71.0145 88.9773L104.005 73.0858L104.005 82.5443ZM69.6344 31.7079L122.443 57.146L106.226 64.9579C106.083 65.0032 105.942 65.0564 105.804 65.1222L69.6344 82.5458L33.4647 65.1222C33.3276 65.0564 33.1867 65.0032 33.044 64.9579L16.8265 57.1457L69.6344 31.7079Z" fill="black"/>
</g>
</svg>
